Michigan Big Woods research plot data — census_2014_bw • forestecology
…
# Species-specific mortality between 2008 and 2014 censuses
census_2008_bw %>%
  left_join(census_2014_bw, by = c("treeID", "stemID"), suffix = c("_2008", "_2014")) %>%
  mutate(mortality = ifelse(is.na(dbh_2014), 1, 0)) %>%
  group_by(sp_2008) %>%
  summarize(mortality = mean(mortality), n = n()) %>%
  arrange(desc(n))

#> # A tibble: 36 × 3
#>    sp_2008              mortality     n
#>    <chr>                    <dbl> <int>
#>  1 black_cherry            0.203   9079
#>  2 red_maple               0.112   5958
#>  3 witch_hazel             0.239   3481
#>  4 serviceberry            0.122   1506
#>  5 white_oak               0.0771  1180
#>  6 black_oak               0.203   1171
#>  7 pignut_hickory          0.0346  1128
#>  8 sassafras               0.316    735
#>  9 american_elm            0.0880   591
#> 10 black_red_oak_hybrid    0        536
#> # … with 26 more rows
…
